[gd_scene load_steps=6 format=2]

[ext_resource path="res://assets/ship1.png" type="Texture" id=1]
[ext_resource path="res://assets/proto-cube.obj" type="ArrayMesh" id=2]
[ext_resource path="res://Ship.gd" type="Script" id=3]

[sub_resource type="SpatialMaterial" id=1]
albedo_texture = ExtResource( 1 )

[sub_resource type="BoxShape" id=2]
extents = Vector3( 0.5, 0.5, 0.5 )

[node name="Ship" type="Spatial"]
script = ExtResource( 3 )

[node name="proto-cube" type="MeshInstance" parent="."]
mesh = ExtResource( 2 )
material/0 = SubResource( 1 )

[node name="Area" type="Area" parent="."]

[node name="CollisionShape" type="CollisionShape" parent="Area"]
shape = SubResource( 2 )
